\version "2.13.36"

\header {
  lsrtags = "staff-notation, fretted-strings"

  texidoc = "
Use a markup text to replace the (TAB) clef glyph with a modern font.

"
  doctitle = "Modern TAB text clef"
}

\markup {
  This snippet is deprecated as of version 2.13.4 and will be removed
  in version 2.14.
}
