\version "2.13.36"

\header {
  lsrtags = "expressive-marks, unfretted-strings"
  texidoc = "
A snap-pizzicato (also known as @qq{Bartok pizzicato}) is a @qq{strong
pizzicato where the string is plucked vertically by snapping and
rebounds off the fingerboard of the instrument} (Wikipedia).  It is
denoted by a circle with a vertical line going from the center upwards
outside the circle.
"
  doctitle = "Snap-pizzicato (@qq{Bartok pizzicato})"
}

\relative c' {
  c4\snappizzicato
  <c' e g>4\snappizzicato
  <c' e g>4^\snappizzicato
  <c, e g>4_\snappizzicato
}
