%% DO NOT EDIT this file manually; it is automatically
%% generated from LSR http://lsr.dsi.unimi.it
%% Make any changes in LSR itself, or in Documentation/snippets/new/ ,
%% and then run scripts/auxiliar/makelsr.py
%%
%% This file is in the public domain.
\version "2.12.2"

\header {
  lsrtags = "staff-notation, contexts-and-engravers"

%% Translation of GIT committish: 91eeed36c877fe625d957437d22081721c8c6345
  texidoces = "
Se puede añadir (posiblemente de forma temporal) un pentagrama
nuevo una vez que la pieza ha comenzado.

"
  doctitlees = "Añadir un pentagrama nuevo"

  texidoc = "
An extra staff can be added (possibly temporarily) after the start of a
piece.

"
  doctitle = "Adding an extra staff"
} % begin verbatim

\score {
  <<
    \new Staff \relative c'' {
      c1 | c | c | c | c
    }
    \new StaffGroup \relative c'' {
      \new Staff {
        c1 | c
        <<
          {
            c1 | d
          }
          \new Staff {
            \once \override Staff.TimeSignature #'stencil = ##f
            c1 | b
          }
        >>
        c1
      }
    }
  >>
}

