%% DO NOT EDIT this file manually; it is automatically
%% generated from LSR http://lsr.dsi.unimi.it
%% Make any changes in LSR itself, or in Documentation/snippets/new/ ,
%% and then run scripts/auxiliar/makelsr.py
%%
%% This file is in the public domain.
\version "2.12.2"

\header {
  lsrtags = "rhythms, tweaks-and-overrides"

%% Translation of GIT committish: 91eeed36c877fe625d957437d22081721c8c6345
  texidoces = "
Se puede ajustar la separación entre las notas de adorno utilizando la
propiedad @code{spacing-increment} de @code{Score.GraceSpacing}.

"

  doctitlees = "Ajuste del espaciado de las notas de adorno"

  texidoc = "
The space given to grace notes can be adjusted using the
@code{spacing-increment} property of @code{Score.GraceSpacing}.

"
  doctitle = "Adjusting grace note spacing"
} % begin verbatim

graceNotes = {
  \grace { c4 c8 c16 c32 }
  c8
}

\relative c'' {
  c8
  \graceNotes
  \override Score.GraceSpacing #'spacing-increment = #2.0
  \graceNotes
  \revert Score.GraceSpacing #'spacing-increment
  \graceNotes
}

