%% DO NOT EDIT this file manually; it is automatically
%% generated from LSR http://lsr.dsi.unimi.it
%% Make any changes in LSR itself, or in Documentation/snippets/new/ ,
%% and then run scripts/auxiliar/makelsr.py
%%
%% This file is in the public domain.
\version "2.12.2"

\header {
  lsrtags = "pitches, vocal-music"

%% Translation of GIT committish: 91eeed36c877fe625d957437d22081721c8c6345
  doctitlees = "Ámbitos con varias voces"
  texidoces = "
La adición del grabador @code{Ambitus_engraver} al contexto de
@code{Staff} crea un solo ámbito por pentagrama, incluso en el caso de
pentagramas con varias voces.

"


%% Translation of GIT committish: 0a868be38a775ecb1ef935b079000cebbc64de40
  texidocde = "
Indem man den @code{Ambitus_engraver} im @code{Staff}-Kontext
hinzufügt, erhält man einen einzigen Ambitus pro System, auch in dem
Fall, dass mehrere Stimmen sich im gleichen System befinden.
"
  doctitlede = "Ambitus mit vielen Stimmen"

%% Translation of GIT committish: 4ab2514496ac3d88a9f3121a76f890c97cedcf4e
  texidocfr = "
Si plusieurs voix se trouvent sur une même portée, on peut attribuer le
graveur @code{Ambitus_engraver} au contexte @code{Staff} afin d'obtenir
l'ambitus de toutes les voix cumulées, non d'une seule des voix actives.

"
  doctitlefr = "Ambitus sur plusieurs voix"


  texidoc = "
Adding the @code{Ambitus_engraver} to the @code{Staff} context creates
a single ambitus per staff, even in the case of staves with multiple
voices.

"
  doctitle = "Ambitus with multiple voices"
} % begin verbatim

\new Staff \with {
  \consists "Ambitus_engraver"
  }
<<
  \new Voice \relative c'' {
    \voiceOne
    c4 a d e
    f1
  }
  \new Voice \relative c' {
    \voiceTwo
    es4 f g as
    b1
  }
>>


