%% DO NOT EDIT this file manually; it is automatically
%% generated from LSR http://lsr.dsi.unimi.it
%% Make any changes in LSR itself, or in Documentation/snippets/new/ ,
%% and then run scripts/auxiliar/makelsr.py
%%
%% This file is in the public domain.
\version "2.12.2"

\header {
  lsrtags = "editorial-annotations, tweaks-and-overrides"

%% Translation of GIT committish: 91eeed36c877fe625d957437d22081721c8c6345
  texidoces = "
De forma predeterminada se añaden corchetes de análisis sencillos
debajo del pentagrama.  El ejemplo siguiente muestra una manera de
colocarlos por encima.

"
  doctitlees = "Corchetes de análisis encima del pentagrama"

  texidoc = "
Simple horizontal analysis brackets are added below the staff by
default. The following example shows a way to place them above the
staff instead.

"
  doctitle = "Analysis brackets above the staff"
} % begin verbatim

\layout {
  \context {
    \Voice
    \consists "Horizontal_bracket_engraver"
  }
}
\relative c'' {
  \once \override HorizontalBracket #'direction = #UP
  c2\startGroup
  d2\stopGroup
}

