%% DO NOT EDIT this file manually; it is automatically
%% generated from LSR http://lsr.dsi.unimi.it
%% Make any changes in LSR itself, or in Documentation/snippets/new/ ,
%% and then run scripts/auxiliar/makelsr.py
%%
%% This file is in the public domain.
\version "2.12.2"

\header {
  lsrtags = "chords"

%% Translation of GIT committish: 91eeed36c877fe625d957437d22081721c8c6345
  texidoces = "
Las alteraciones y los signos «más» pueden aparecer antes o
después de los números, según el valor de las propiedades
@code{figuredBassAlterationDirection} y
@code{figuredBassPlusDirection}.

"
  doctitlees = "Cambiar las posiciones de las alteraciones del bajo cifrado"


%% Translation of GIT committish: 0a868be38a775ecb1ef935b079000cebbc64de40
  texidocde = "
Versetzungszeichen und Pluszeichen können vor oder nach den Ziffern erscheinen,
je nach den Einstellungen der @code{figuredBassAlterationDirection} und
@code{figuredBassPlusDirection}-Eigenschaften.

"
  doctitlede = "Positionen von Generalbass-Alterationszeichen verändern"

  texidoc = "
Accidentals and plus signs can appear before or after the numbers,
depending on the @code{figuredBassAlterationDirection} and
@code{figuredBassPlusDirection} properties.

"
  doctitle = "Changing the positions of figured bass alterations"
} % begin verbatim

\figures {
  <6\+> <5+> <6 4-> r
  \set figuredBassAlterationDirection = #RIGHT
  <6\+> <5+> <6 4-> r
  \set figuredBassPlusDirection = #RIGHT
  <6\+> <5+> <6 4-> r
  \set figuredBassAlterationDirection = #LEFT
  <6\+> <5+> <6 4-> r
}

