%% DO NOT EDIT this file manually; it is automatically
%% generated from LSR http://lsr.dsi.unimi.it
%% Make any changes in LSR itself, or in Documentation/snippets/new/ ,
%% and then run scripts/auxiliar/makelsr.py
%%
%% This file is in the public domain.
\version "2.12.2"

\header {
  lsrtags = "chords"

%% Translation of GIT committish: 91eeed36c877fe625d957437d22081721c8c6345
  texidoces = "
Se puede establecer el separador entre las distintas partes del
nombre de un acorde para que sea cualquier elemento de marcado.

"
  doctitlees = "Modificación del separador de acordes"


%% Translation of GIT committish: 0a868be38a775ecb1ef935b079000cebbc64de40
  texidocde = "
Der Trenner zwischen unterschiedlichen Teilen eines Akkordsymbols kann
beliebiger Text sein.

"
  doctitlede = "Akkordsymboltrenner verändern"

  texidoc = "
The separator between different parts of a chord name can be set to any
markup.

"
  doctitle = "Changing chord separator"
} % begin verbatim

\chords {
  c:7sus4
  \set chordNameSeparator
    = \markup { \typewriter | }
  c:7sus4
}

