% DO NOT EDIT this file manually; it is automatically
% generated from Documentation/snippets/new
% Make any changes in Documentation/snippets/new/
% and then run scripts/auxiliar/makelsr.py
%
% This file is in the public domain.
%% Note: this file works from version 2.13.36
\version "2.13.36"

\header {
%% Translation of GIT committish: 91eeed36c877fe625d957437d22081721c8c6345
  texidoces = "
La instrucción @code{\\time} establece las propiedades
@code{timeSignatureFraction}, @code{beatLength}, @code{beatGrouping} y
@code{measureLength} en el contexto @code{Timing}, que normalmente
tiene el alias @code{Score}.  La modificación del valor de
@code{timeSignatureFraction} hace que se imprima la nueva indicación
de compás sin que cambie ninguna de las demás propiedades:

"
  doctitlees = "Cambio de compás sin afectar al barrado"



%% Translation of GIT committish: 0a868be38a775ecb1ef935b079000cebbc64de40
  texidocde = "
Der @code{\\time}-Befehl verändert die Eigenschaften
@code{timeSignatureFraction}, @code{beatLength}, @code{beatGrouping}
und @code{measureLength} im @code{Timing}-Kontext, welcher normalerweise
gleichbedeutend mit @code{Score} ist.  Wenn der Wert von
@code{timeSignatureFraction} verändert wird, wird die neue
Taktart ausgegeben, ohne die anderen Eigenschaften zu beeinflussen:

"
  doctitlede = "Die Taktart verändern ohne die Bebalkung zu beeinflussen"



%% Translation of GIT committish: 4ab2514496ac3d88a9f3121a76f890c97cedcf4e
  texidocfr = "
La commande @code{\\time} gère les propriétés
@code{timeSignatureFraction}, @code{beatLength}, @code{beatGrouping}
et @code{measureLength} dans le contexte @code{Timing}, normalement
rattaché à @code{Score}.  Le fait de modifier la valeur de
@code{timeSignatureFraction} aura pour effet de changer l'apparence du
symbole affiché sans pour autant affecter les autres propriétés de la
métrique :

"
  doctitlefr = "Changement de métrique sans affecter les règles de ligature"

  lsrtags = "rhythms"
  texidoc = "
The @code{\\time} command sets the properties
@code{timeSignatureFraction}, @code{beatLength}, @code{beatGrouping}
and @code{measureLength} in the @code{Timing} context, which is
normally aliased to @code{Score}. Changing the value of
@code{timeSignatureFraction} causes the new time signature symbol to be
printed without changing any of the other properties:

"
  doctitle = "Changing the time signature without affecting the beaming"
} % begin verbatim


\markup {
  This snippet is deprecated as of 2.13.5 and will be removed in 2.14
}
