% DO NOT EDIT this file manually; it is automatically
% generated from Documentation/snippets/new
% Make any changes in Documentation/snippets/new/
% and then run scripts/auxiliar/makelsr.py
%
% This file is in the public domain.
%% Note: this file works from version 2.13.36
\version "2.13.36"

\header {
%% Translation of GIT committish: 91eeed36c877fe625d957437d22081721c8c6345
  texidoces = "
Se puede hacer que los diagramas de posiciones se muestren sólo
cuando el acorde cambia o al comienzo de una nueva línea.

"

  doctitlees = "Cambios de acorde de posiciones de trastes"


%% Translation of GIT committish: 0a868be38a775ecb1ef935b079000cebbc64de40
texidocde = "
Bunddiagramme können definiert werden, sodass sie nur angezeigt werden,
wenn der Akkord sich ändert oder eine neue Zeile anfängt.

"

  doctitlede = "Akkordänderungen für Bunddiagramme"

  lsrtags = "fretted-strings"
  texidoc = "FretBoards can be set to display only when the chord changes
or at the beginning of a new line."
  doctitle = "chordChanges for FretBoards"
} % begin verbatim


\include "predefined-guitar-fretboards.ly"

myChords = \chordmode {
  c1 c1 \break
  \set chordChanges = ##t
  c1 c1 \break
  c1 c1 \break
}

<<
  \new ChordNames { \myChords }
  \new FretBoards { \myChords }
  \new Staff { \myChords }
>>
