%% DO NOT EDIT this file manually; it is automatically
%% generated from LSR http://lsr.dsi.unimi.it
%% Make any changes in LSR itself, or in Documentation/snippets/new/ ,
%% and then run scripts/auxiliar/makelsr.py
%%
%% This file is in the public domain.
\version "2.12.2"

\header {
  lsrtags = "simultaneous-notes, chords, keyboards"

%% Translation of GIT committish: 91eeed36c877fe625d957437d22081721c8c6345
  texidoces = "
Los «clusters» o racimos son un mecanismo para indicar la
interpretación de un ámbito de notas al mismo tiempo.

"
  doctitlees = "Clusters («racimos»)"

  texidoc = "
Clusters are a device to denote that a complete range of notes is to be
played.

"
  doctitle = "Clusters"
} % begin verbatim

fragment = \relative c' {
  c4 f <e d'>4
  <g a>8 <e a> a4 c2 <d b>4
  e2 c
}

<<
  \new Staff \fragment
  \new Staff \makeClusters \fragment
>>

