% DO NOT EDIT this file manually; it is automatically
% generated from Documentation/snippets/new
% Make any changes in Documentation/snippets/new/
% and then run scripts/auxiliar/makelsr.py
%
% This file is in the public domain.
%% Note: this file works from version 2.13.36
\version "2.13.36"

\header {
%% Translation of GIT committish: 91eeed36c877fe625d957437d22081721c8c6345

  texidoces = "
Se puede simular un @qq{hammer} o ligado ascendente con ligaduras de
expresión.

"

  doctitlees = "Simular un hammer o ligado ascendente en una tablatura"

  lsrtags = "fretted-strings"
  texidoc = "
A hammer in tablature can be faked with slurs.
"
  doctitle = "Faking a hammer in tablatures"
} % begin verbatim


\score {
  \new TabStaff {
    \relative c'' {
      \tabFullNotation
      c4( d) d( d)
      d2( c)
    }
  }
}
