%% DO NOT EDIT this file manually; it is automatically
%% generated from LSR http://lsr.dsi.unimi.it
%% Make any changes in LSR itself, or in Documentation/snippets/new/ ,
%% and then run scripts/auxiliar/makelsr.py
%%
%% This file is in the public domain.
\version "2.12.2"

\header {
  lsrtags = "pitches"

%% Translation of GIT committish: 91eeed36c877fe625d957437d22081721c8c6345
doctitlees = "Evitar que se añadan becuadros adicionales automáticamente"

texidoces = "
Según las reglas estándar de composición
tipográfica, se imprime un becuadro antes de un sostenido o un
bemol cuando se tiene que cancelar una alteración anterior en la
misma nota.  Para modificar este comportamiento, establezca el
valor de la propiedad @code{extraNatural} a @code{##f} (falso)
dentro del contexto de @code{Staff}.

"


%% Translation of GIT committish: 0a868be38a775ecb1ef935b079000cebbc64de40
  doctitlede = "Verhindern, dass zusätzliche Auflösungszeichen automatisch
hinzugefügt werden"

texidocde = "Den traditionellen Notensatzregeln zufolge wird ein
Auflösungszeichen immer dann vor einem Kreuz oder B gesetzt, wenn
ein vorheriges Versetzungszeichen der gleichen Note aufgehoben werden
soll.  Um dieses Verhalten zu ändern, muss die Eigenschaft
@code{extraNatural} im @code{Staff}-Kontext auf \"false\" gesetzt werden.
"

%% Translation of GIT committish: 58a29969da425eaf424946f4119e601545fb7a7e
  texidocfr = "
En accord avec les règles standards de l'écriture musicale, on grave
un bécarre avant un dièse ou un bémol si on a besoin d'annuler une
altération précédente.  Pour modifier ce comportement, assignez la propriété
@code{extraNatural} du contexte @code{Staff} à la valeur @code{##f} (faux).
"

  doctitlefr = "Suppression des bécarres superflus"

  texidoc = "
In accordance with standard typesetting rules, a natural sign is
printed before a sharp or flat if a previous accidental on the same
note needs to be canceled.  To change this behavior, set the
@code{extraNatural} property to @code{f} in the @code{Staff} context.



"
  doctitle = "Preventing extra naturals from being automatically added"
} % begin verbatim

\relative c'' {
  aeses4 aes ais a
  \set Staff.extraNatural = ##f
  aeses4 aes ais a
}

