%% DO NOT EDIT this file manually; it is automatically
%% generated from LSR http://lsr.dsi.unimi.it
%% Make any changes in LSR itself, or in Documentation/snippets/new/ ,
%% and then run scripts/auxiliar/makelsr.py
%%
%% This file is in the public domain.
\version "2.12.2"

\header {
  lsrtags = "expressive-marks"

%% Translation of GIT committish: 91eeed36c877fe625d957437d22081721c8c6345
  texidoces = "
Si los reguladores son demasiado cortos, se pueden alargar
modificando la propiedad @code{minimum-length} del objeto
@code{Hairpin}.

"
  doctitlees = "Ajustar la longitud mínima de los reguladores"


%% Translation of GIT committish: 0a868be38a775ecb1ef935b079000cebbc64de40
texidocde = "
Wenn Crescendo-Klammern zu kurz sind, können sie verlängert werden, indem
die @code{minimum-length}-Eigenschaft des @code{Hairpin}-Objektes
verändert wird.

"
  doctitlede = "Die Mindestlänge von Crescendo-Klammern bestimmen"

%% Translation of GIT committish: 4ab2514496ac3d88a9f3121a76f890c97cedcf4e
  texidocfr = "
Si un soufflet est trop court, il suffit d'ajuster la propriété
@code{minimum-length} de l'objet @code{Hairpin} pour l'allonger.

"
  doctitlefr = "Ajustement de la longueur d'un soufflet"


  texidoc = "
If hairpins are too short, they can be lengthened by modifying the
@code{minimum-length} property of the @code{Hairpin} object.

"
  doctitle = "Setting the minimum length of hairpins"
} % begin verbatim

\relative c'' {
  c4\< c\! d\> e\!
  \override Hairpin #'minimum-length = #5
  << f1 { s4 s\< s\> s\! } >>
}

