% Lily was here -- automatically converted by ../../../scripts/midi2ly.py from out-www/option-key.midi
\version "2.13.53"

\layout {
  \context {
    \Voice
    \remove "Note_heads_engraver"
    \consists "Completion_heads_engraver"
    \remove "Rest_engraver"
    \consists "Completion_rest_engraver"
  }
}

% included from ./out-www/option-key.header
\header {
texidoc="midi2ly @code{--key} works, this is F major"
options="--key=-1"
}
% end

trackAchannelA = {


  % [SEQUENCE_TRACK_NAME] control track
  
  % [TEXT_EVENT] creator: 
  
  % [TEXT_EVENT] GNU LilyPond 2.13.54          
  
  \time 4/4 
  
  \tempo 4 = 60 
  
}

trackA = <<
  \context Voice = voiceA \trackAchannelA
>>


trackBchannelA = \relative c {
  
  \set Staff.instrumentName = "trackB:voiceA"
  f'4 g a bes 
  | % 2
  c d e f 
  | % 3
  
}

trackB = <<
  \context Voice = voiceA \trackBchannelA
>>


trackCchannelA = {
  
  \set Staff.instrumentName = "trackB:"
  

}

trackC = <<
  \context Voice = voiceA \trackCchannelA
>>


\score {
  <<
    \context Staff=trackB \trackA
    \context Staff=trackB \trackB
  >>
  \layout {}
  \midi {}
}
