% Lily was here -- automatically converted by ../../../scripts/midi2ly.py from out-www/voice-2.midi
\version "2.13.53"

\layout {
  \context {
    \Voice
    \remove "Note_heads_engraver"
    \consists "Completion_heads_engraver"
    \remove "Rest_engraver"
    \consists "Completion_rest_engraver"
  }
}

% included from ./out-www/voice-2.header
\header {
texidoc="midi2ly maps two voices nicely on one staff as \voiceOne, \voiceTwo"
options=""
}
% end

trackAchannelA = {
  
  % [SEQUENCE_TRACK_NAME] control track
  
  % [TEXT_EVENT] creator: 
  
  % [TEXT_EVENT] GNU LilyPond 2.13.54          
  
  \time 4/4 
  
  \tempo 4 = 60 
  
}

trackA = <<
  \context Voice = voiceA \trackAchannelA
>>


trackBchannelA = \relative c {
  \voiceOne
  
  \set Staff.instrumentName = ":1"
  e''4 e e e 
  | % 2
  
}

trackBchannelB = \relative c {
  \voiceTwo
  f' f f f 
  | % 2
  
}

trackB = <<
  \context Voice = voiceA \trackBchannelA
  \context Voice = voiceB \trackBchannelB
>>


\score {
  <<
    \context Staff=trackB \trackA
    \context Staff=trackB \trackB
  >>
  \layout {}
  \midi {}
}
