\version "2.13.22"

\header {
  texidoc = "Post events such as fingerings and scripts added to a
chord repetition follow the same basic stacking order as chords.
"
}

\relative c' {
  <c e g>2-1-2-3 q_"q"-1-2-3
}
