\header {

  texidoc = "Notes can be set in the Funk (Harmonica Sacra) style."

}
\version "2.12.0"

\relative c' {
  \key c \major
  \funkHeads
  c1 d e f g a b c d e f g a b c
  c,,2 d e f g a b c d e f g a b c
  c,,4 d e f g a b c d e f g a b c
}

